{
  "_fv": 10,
  "_type": "tool",
  "definition": {
    "renderType": 0,
    "texture": "hache_de_guerre",
    "customModelName": "Normal",
    "name": "Battle Axe",
    "specialInfo": [],
    "creativeTab": {
      "value": "CUSTOM:Nezolia"
    },
    "toolType": "Axe",
    "harvestLevel": 1,
    "efficiency": 4.0,
    "attackSpeed": 1.5,
    "enchantability": 30,
    "damageVsEntity": 10.0,
    "usageCount": 150,
    "blocksAffected": [],
    "hasGlow": false,
    "repairItems": [
      {
        "value": "CUSTOM:NezoliteRenforceOreBlock"
      }
    ],
    "stayInGridWhenCrafting": false,
    "damageOnCrafting": false,
    "onItemInUseTick": {
      "name": "BattleAxeEffect"
    }
  }
}