{
  "_fv": 10,
  "_type": "recipe",
  "definition": {
    "recipeType": "Crafting",
    "xpReward": 0.0,
    "cookingTime": 200,
    "recipeRetstackSize": 3,
    "group": "",
    "recipeShapeless": false,
    "recipeSlots": [
      {
        "value": "Blocks.GLASS_PANE"
      },
      {
        "value": ""
      },
      {
        "value": "Blocks.GLASS_PANE"
      },
      {
        "value": "Blocks.GLASS_PANE"
      },
      {
        "value": ""
      },
      {
        "value": "Blocks.GLASS_PANE"
      },
      {
        "value": "Items.IRON_INGOT"
      },
      {
        "value": "Items.IRON_INGOT"
      },
      {
        "value": "Items.IRON_INGOT"
      }
    ],
    "recipeReturnStack": {
      "value": "CUSTOM:Choppe"
    },
    "name": "choppecraft",
    "namespace": "mod"
  }
}