{
  "_fv": 10,
  "_type": "procedure",
  "definition": {
    "procedurexml": "<xml xmlns=\"https://developers.google.com/blockly/xml\"><block type=\"event_trigger\" deletable=\"false\" x=\"40\" y=\"40\"><field name=\"trigger\">no_ext_trigger</field><next><block type=\"spawn_particle_multi\"><field name=\"particle\">SMOKE_NORMAL</field><value name=\"count\"><block type=\"math_number\"><field name=\"NUM\">5</field></block></value><value name=\"x\"><block type=\"coord_x\"/></value><value name=\"y\"><block type=\"coord_y\"/></value><value name=\"z\"><block type=\"coord_z\"/></value><value name=\"dx\"><block type=\"math_number\"><field name=\"NUM\">1</field></block></value><value name=\"dy\"><block type=\"math_number\"><field name=\"NUM\">1</field></block></value><value name=\"dz\"><block type=\"math_number\"><field name=\"NUM\">1</field></block></value><value name=\"speed\"><block type=\"math_number\"><field name=\"NUM\">1</field></block></value><next><block type=\"spawn_particle_multi\"><field name=\"particle\">SMOKE_NORMAL</field><value name=\"count\"><block type=\"math_number\"><field name=\"NUM\">5</field></block></value><value name=\"x\"><block type=\"coord_x\"/></value><value name=\"y\"><block type=\"coord_y\"/></value><value name=\"z\"><block type=\"coord_z\"/></value><value name=\"dx\"><block type=\"math_number\"><field name=\"NUM\">1</field></block></value><value name=\"dy\"><block type=\"math_number\"><field name=\"NUM\">1</field></block></value><value name=\"dz\"><block type=\"math_number\"><field name=\"NUM\">1</field></block></value><value name=\"speed\"><block type=\"math_number\"><field name=\"NUM\">1</field></block></value><next><block type=\"spawn_particle_multi\"><field name=\"particle\">SMOKE_NORMAL</field><value name=\"count\"><block type=\"math_number\"><field name=\"NUM\">5</field></block></value><value name=\"x\"><block type=\"coord_x\"/></value><value name=\"y\"><block type=\"coord_y\"/></value><value name=\"z\"><block type=\"coord_z\"/></value><value name=\"dx\"><block type=\"math_number\"><field name=\"NUM\">1</field></block></value><value name=\"dy\"><block type=\"math_number\"><field name=\"NUM\">1</field></block></value><value name=\"dz\"><block type=\"math_number\"><field name=\"NUM\">1</field></block></value><value name=\"speed\"><block type=\"math_number\"><field name=\"NUM\">1</field></block></value><next><block type=\"spawn_particle_multi\"><field name=\"particle\">SMOKE_NORMAL</field><value name=\"count\"><block type=\"math_number\"><field name=\"NUM\">5</field></block></value><value name=\"x\"><block type=\"coord_x\"/></value><value name=\"y\"><block type=\"coord_y\"/></value><value name=\"z\"><block type=\"coord_z\"/></value><value name=\"dx\"><block type=\"math_number\"><field name=\"NUM\">1</field></block></value><value name=\"dy\"><block type=\"math_number\"><field name=\"NUM\">1</field></block></value><value name=\"dz\"><block type=\"math_number\"><field name=\"NUM\">1</field></block></value><value name=\"speed\"><block type=\"math_number\"><field name=\"NUM\">1</field></block></value><next><block type=\"spawn_particle_multi\"><field name=\"particle\">SMOKE_NORMAL</field><value name=\"count\"><block type=\"math_number\"><field name=\"NUM\">5</field></block></value><value name=\"x\"><block type=\"coord_x\"/></value><value name=\"y\"><block type=\"coord_y\"/></value><value name=\"z\"><block type=\"coord_z\"/></value><value name=\"dx\"><block type=\"math_number\"><field name=\"NUM\">1</field></block></value><value name=\"dy\"><block type=\"math_number\"><field name=\"NUM\">1</field></block></value><value name=\"dz\"><block type=\"math_number\"><field name=\"NUM\">1</field></block></value><value name=\"speed\"><block type=\"math_number\"><field name=\"NUM\">1</field></block></value><next><block type=\"spawn_particle_multi\"><field name=\"particle\">SMOKE_NORMAL</field><value name=\"count\"><block type=\"math_number\"><field name=\"NUM\">5</field></block></value><value name=\"x\"><block type=\"coord_x\"/></value><value name=\"y\"><block type=\"coord_y\"/></value><value name=\"z\"><block type=\"coord_z\"/></value><value name=\"dx\"><block type=\"math_number\"><field name=\"NUM\">1</field></block></value><value name=\"dy\"><block type=\"math_number\"><field name=\"NUM\">1</field></block></value><value name=\"dz\"><block type=\"math_number\"><field name=\"NUM\">1</field></block></value><value name=\"speed\"><block type=\"math_number\"><field name=\"NUM\">1</field></block></value><next><block type=\"spawn_particle_multi\"><field name=\"particle\">SMOKE_NORMAL</field><value name=\"count\"><block type=\"math_number\"><field name=\"NUM\">5</field></block></value><value name=\"x\"><block type=\"coord_x\"/></value><value name=\"y\"><block type=\"coord_y\"/></value><value name=\"z\"><block type=\"coord_z\"/></value><value name=\"dx\"><block type=\"math_number\"><field name=\"NUM\">1</field></block></value><value name=\"dy\"><block type=\"math_number\"><field name=\"NUM\">1</field></block></value><value name=\"dz\"><block type=\"math_number\"><field name=\"NUM\">1</field></block></value><value name=\"speed\"><block type=\"math_number\"><field name=\"NUM\">1</field></block></value><next><block type=\"spawn_particle_multi\"><field name=\"particle\">SMOKE_NORMAL</field><value name=\"count\"><block type=\"math_number\"><field name=\"NUM\">5</field></block></value><value name=\"x\"><block type=\"coord_x\"/></value><value name=\"y\"><block type=\"coord_y\"/></value><value name=\"z\"><block type=\"coord_z\"/></value><value name=\"dx\"><block type=\"math_number\"><field name=\"NUM\">1</field></block></value><value name=\"dy\"><block type=\"math_number\"><field name=\"NUM\">1</field></block></value><value name=\"dz\"><block type=\"math_number\"><field name=\"NUM\">1</field></block></value><value name=\"speed\"><block type=\"math_number\"><field name=\"NUM\">1</field></block></value><next><block type=\"spawn_particle_multi\"><field name=\"particle\">SMOKE_NORMAL</field><value name=\"count\"><block type=\"math_number\"><field name=\"NUM\">5</field></block></value><value name=\"x\"><block type=\"coord_x\"/></value><value name=\"y\"><block type=\"coord_y\"/></value><value name=\"z\"><block type=\"coord_z\"/></value><value name=\"dx\"><block type=\"math_number\"><field name=\"NUM\">1</field></block></value><value name=\"dy\"><block type=\"math_number\"><field name=\"NUM\">1</field></block></value><value name=\"dz\"><block type=\"math_number\"><field name=\"NUM\">1</field></block></value><value name=\"speed\"><block type=\"math_number\"><field name=\"NUM\">1</field></block></value><next><block type=\"spawn_particle_multi\"><field name=\"particle\">SMOKE_NORMAL</field><value name=\"count\"><block type=\"math_number\"><field name=\"NUM\">5</field></block></value><value name=\"x\"><block type=\"coord_x\"/></value><value name=\"y\"><block type=\"coord_y\"/></value><value name=\"z\"><block type=\"coord_z\"/></value><value name=\"dx\"><block type=\"math_number\"><field name=\"NUM\">1</field></block></value><value name=\"dy\"><block type=\"math_number\"><field name=\"NUM\">1</field></block></value><value name=\"dz\"><block type=\"math_number\"><field name=\"NUM\">1</field></block></value><value name=\"speed\"><block type=\"math_number\"><field name=\"NUM\">1</field></block></value><next><block type=\"explode\"><value name=\"x\"><block type=\"coord_x\"/></value><value name=\"y\"><block type=\"coord_y\"/></value><value name=\"z\"><block type=\"coord_z\"/></value><value name=\"power\"><block type=\"math_number\"><field name=\"NUM\">3</field></block></value></block></next></block></next></block></next></block></next></block></next></block></next></block></next></block></next></block></next></block></next></block></next></block></xml>"
  }
}