{
  "_fv": 10,
  "_type": "gui",
  "definition": {
    "type": 0,
    "width": 352,
    "height": 332,
    "renderBgLayer": false,
    "doesPauseGame": false,
    "components": [
      {
        "type": "label",
        "data": {
          "text": "Tu es mineur de niveau 1 !",
          "color": {
            "value": -1,
            "falpha": 0.0
          },
          "name": "Tu es mineur de niveau 1 !",
          "x": 300,
          "y": 78
        }
      }
    ]
  }
}