{
  "_fv": 10,
  "_type": "tool",
  "definition": {
    "renderType": 0,
    "texture": "ggf",
    "customModelName": "Normal",
    "name": "§7Pelle en §cNezolite",
    "specialInfo": [],
    "creativeTab": {
      "value": "CUSTOM:Nezolia"
    },
    "toolType": "Spade",
    "harvestLevel": 2,
    "efficiency": 6.5,
    "attackSpeed": 1.0,
    "enchantability": 14,
    "damageVsEntity": 2.0,
    "usageCount": 950,
    "blocksAffected": [],
    "hasGlow": false,
    "repairItems": [
      {
        "value": "CUSTOM:NezoliteGem"
      }
    ],
    "stayInGridWhenCrafting": false,
    "damageOnCrafting": false
  }
}