{
  "_fv": 10,
  "_type": "gui",
  "definition": {
    "type": 1,
    "width": 364,
    "height": 338,
    "renderBgLayer": true,
    "doesPauseGame": false,
    "components": [
      {
        "type": "inputslot",
        "data": {
          "inputLimit": {
            "value": ""
          },
          "id": 1,
          "disableStackInteraction": false,
          "dropItemsWhenNotBound": true,
          "name": "Slot #1",
          "x": 318,
          "y": 78
        }
      },
      {
        "type": "inputslot",
        "data": {
          "inputLimit": {
            "value": ""
          },
          "id": 2,
          "disableStackInteraction": false,
          "dropItemsWhenNotBound": true,
          "name": "Slot #2",
          "x": 354,
          "y": 78
        }
      },
      {
        "type": "inputslot",
        "data": {
          "inputLimit": {
            "value": ""
          },
          "id": 3,
          "disableStackInteraction": false,
          "dropItemsWhenNotBound": true,
          "name": "Slot #3",
          "x": 498,
          "y": 78
        }
      },
      {
        "type": "inputslot",
        "data": {
          "inputLimit": {
            "value": ""
          },
          "id": 4,
          "disableStackInteraction": false,
          "dropItemsWhenNotBound": true,
          "name": "Slot #4",
          "x": 462,
          "y": 78
        }
      },
      {
        "type": "inputslot",
        "data": {
          "inputLimit": {
            "value": ""
          },
          "id": 5,
          "disableStackInteraction": false,
          "dropItemsWhenNotBound": true,
          "name": "Slot #5",
          "x": 408,
          "y": 114
        }
      },
      {
        "type": "outputslot",
        "data": {
          "id": 6,
          "disableStackInteraction": false,
          "dropItemsWhenNotBound": true,
          "name": "Slot #6",
          "x": 408,
          "y": 186
        }
      },
      {
        "type": "image",
        "data": {
          "image": "arrow-left.png",
          "name": "arrow-left.png",
          "x": 318,
          "y": 60
        }
      },
      {
        "type": "image",
        "data": {
          "image": "tonneau-arrow-right.png",
          "name": "tonneau-arrow-right.png",
          "x": 354,
          "y": 60
        }
      },
      {
        "type": "image",
        "data": {
          "image": "tonneau-arrow-down.png",
          "name": "tonneau-arrow-down.png",
          "x": 336,
          "y": 78
        }
      },
      {
        "type": "image",
        "data": {
          "image": "avoine.png",
          "name": "avoine.png",
          "x": 318,
          "y": 78
        }
      },
      {
        "type": "image",
        "data": {
          "image": "hops.png",
          "name": "hops.png",
          "x": 354,
          "y": 78
        }
      },
      {
        "type": "image",
        "data": {
          "image": "orge.png",
          "name": "orge.png",
          "x": 462,
          "y": 78
        }
      },
      {
        "type": "image",
        "data": {
          "image": "riz.png",
          "name": "riz.png",
          "x": 498,
          "y": 78
        }
      },
      {
        "type": "label",
        "data": {
          "text": "Tonneau",
          "color": {
            "value": 2064517654,
            "falpha": 0.0
          },
          "name": "Tonneau",
          "x": 286,
          "y": 160
        }
      }
    ]
  }
}