{
  "_fv": 10,
  "_type": "recipe",
  "definition": {
    "recipeType": "Smelting",
    "xpReward": 0.7,
    "cookingTime": 200,
    "recipeRetstackSize": 1,
    "group": "",
    "recipeShapeless": false,
    "smeltingInputStack": {
      "value": "CUSTOM:PlatineOre"
    },
    "smeltingReturnStack": {
      "value": "CUSTOM:PlatineGem"
    },
    "name": "platineoresmelting",
    "namespace": "mod"
  }
}