{
  "_fv": 10,
  "_type": "procedure",
  "definition": {
    "procedurexml": "<?xml version=\"1.0\" encoding=\"UTF-8\" standalone=\"no\"?><xml xmlns=\"https://developers.google.com/blockly/xml\"><block deletable=\"false\" type=\"event_trigger\" x=\"40\" y=\"40\"><field name=\"trigger\">no_ext_trigger</field><next><block type=\"controls_if\"><mutation elseif=\"3\"/><comment h=\"229\" pinned=\"false\" w=\"223\">Door procedure template created byWes a.k.a Millu a.k.a HidanThis procedure checks dirrection for Doors and changes it according to its current dirrectionIMPORTANT!To make it work your door need's to face North by default!</comment><value name=\"IF0\"><block type=\"compare_directions\"><value name=\"a\"><block type=\"world_data_block_direction_at\"><value name=\"x\"><block type=\"coord_x\"/></value><value name=\"y\"><block type=\"coord_y\"/></value><value name=\"z\"><block type=\"coord_z\"/></value></block></value><value name=\"b\"><block type=\"direction_constant\"><field name=\"direction\">NORTH</field></block></value></block></value><statement name=\"DO0\"><block type=\"block_set_direction\"><value name=\"x\"><block type=\"coord_x\"/></value><value name=\"y\"><block type=\"coord_y\"/></value><value name=\"z\"><block type=\"coord_z\"/></value><value name=\"direction\"><block type=\"direction_constant\"><field name=\"direction\">EAST</field></block></value><next><block type=\"play_sound\"><field name=\"sound\">block.wooden_door.open</field><value name=\"x\"><block type=\"coord_x\"/></value><value name=\"y\"><block type=\"coord_y\"/></value><value name=\"z\"><block type=\"coord_z\"/></value><value name=\"level\"><block type=\"math_number\"><field name=\"NUM\">1</field></block></value><value name=\"pitch\"><block type=\"math_number\"><field name=\"NUM\">1</field></block></value></block></next></block></statement><value name=\"IF1\"><block type=\"compare_directions\"><value name=\"a\"><block type=\"world_data_block_direction_at\"><value name=\"x\"><block type=\"coord_x\"/></value><value name=\"y\"><block type=\"coord_y\"/></value><value name=\"z\"><block type=\"coord_z\"/></value></block></value><value name=\"b\"><block type=\"direction_constant\"><field name=\"direction\">EAST</field></block></value></block></value><statement name=\"DO1\"><block type=\"block_set_direction\"><value name=\"x\"><block type=\"coord_x\"/></value><value name=\"y\"><block type=\"coord_y\"/></value><value name=\"z\"><block type=\"coord_z\"/></value><value name=\"direction\"><block type=\"direction_constant\"><field name=\"direction\">NORTH</field></block></value><next><block type=\"play_sound\"><field name=\"sound\">block.wooden_door.close</field><value name=\"x\"><block type=\"coord_x\"/></value><value name=\"y\"><block type=\"coord_y\"/></value><value name=\"z\"><block type=\"coord_z\"/></value><value name=\"level\"><block type=\"math_number\"><field name=\"NUM\">1</field></block></value><value name=\"pitch\"><block type=\"math_number\"><field name=\"NUM\">1</field></block></value></block></next></block></statement><value name=\"IF2\"><block type=\"compare_directions\"><value name=\"a\"><block type=\"world_data_block_direction_at\"><value name=\"x\"><block type=\"coord_x\"/></value><value name=\"y\"><block type=\"coord_y\"/></value><value name=\"z\"><block type=\"coord_z\"/></value></block></value><value name=\"b\"><block type=\"direction_constant\"><field name=\"direction\">SOUTH</field></block></value></block></value><statement name=\"DO2\"><block type=\"block_set_direction\"><value name=\"x\"><block type=\"coord_x\"/></value><value name=\"y\"><block type=\"coord_y\"/></value><value name=\"z\"><block type=\"coord_z\"/></value><value name=\"direction\"><block type=\"direction_constant\"><field name=\"direction\">WEST</field></block></value><next><block type=\"play_sound\"><field name=\"sound\">block.wooden_door.open</field><value name=\"x\"><block type=\"coord_x\"/></value><value name=\"y\"><block type=\"coord_y\"/></value><value name=\"z\"><block type=\"coord_z\"/></value><value name=\"level\"><block type=\"math_number\"><field name=\"NUM\">1</field></block></value><value name=\"pitch\"><block type=\"math_number\"><field name=\"NUM\">1</field></block></value></block></next></block></statement><value name=\"IF3\"><block type=\"compare_directions\"><value name=\"a\"><block type=\"world_data_block_direction_at\"><value name=\"x\"><block type=\"coord_x\"/></value><value name=\"y\"><block type=\"coord_y\"/></value><value name=\"z\"><block type=\"coord_z\"/></value></block></value><value name=\"b\"><block type=\"direction_constant\"><field name=\"direction\">WEST</field></block></value></block></value><statement name=\"DO3\"><block type=\"block_set_direction\"><value name=\"x\"><block type=\"coord_x\"/></value><value name=\"y\"><block type=\"coord_y\"/></value><value name=\"z\"><block type=\"coord_z\"/></value><value name=\"direction\"><block type=\"direction_constant\"><field name=\"direction\">SOUTH</field></block></value><next><block type=\"play_sound\"><field name=\"sound\">block.wooden_door.close</field><value name=\"x\"><block type=\"coord_x\"/></value><value name=\"y\"><block type=\"coord_y\"/></value><value name=\"z\"><block type=\"coord_z\"/></value><value name=\"level\"><block type=\"math_number\"><field name=\"NUM\">1</field></block></value><value name=\"pitch\"><block type=\"math_number\"><field name=\"NUM\">1</field></block></value></block></next></block></statement></block></next></block></xml>"
  }
}