{
  "group": "nezoliamod",
  "type": "minecraft:crafting_shaped",
  "pattern": [
    "01",
    " 3",
    " 5"
  ],
  "key": {
    "0": {
      "item": "nezoliamod:nezolitejaunegem"
    },
    "1": {
      "item": "nezoliamod:nezolitejaunegem"
    },
    "3": {
      "item": "minecraft:stick"
    },
    "5": {
      "item": "minecraft:stick"
    }
  },
  "result": {
    "item": "nezoliamod:nezolitejaunehoe",
    "count": 1
  }
}