{
  "group": "nezoliamod",
  "type": "minecraft:crafting_shaped",
  "pattern": [
    "0 2",
    "345",
    "678"
  ],
  "key": {
    "0": {
      "item": "nezoliamod:platinegem"
    },
    "2": {
      "item": "nezoliamod:platinegem"
    },
    "3": {
      "item": "nezoliamod:platinegem"
    },
    "4": {
      "item": "nezoliamod:platinegem"
    },
    "5": {
      "item": "nezoliamod:platinegem"
    },
    "6": {
      "item": "nezoliamod:platinegem"
    },
    "7": {
      "item": "nezoliamod:platinegem"
    },
    "8": {
      "item": "nezoliamod:platinegem"
    }
  },
  "result": {
    "item": "nezoliamod:platinearmorbody",
    "count": 1
  }
}