{
  "group": "nezoliamod",
  "type": "minecraft:crafting_shapeless",
  "ingredients": [
    {
      "item": "nezoliamod:platineoreblock"
    }
  ],
  "result": {
    "item": "nezoliamod:platinegem",
    "count": 9
  }
}