{
  "group": "nezoliamod",
  "type": "minecraft:crafting_shaped",
  "pattern": [
    "012",
    "345",
    "678"
  ],
  "key": {
    "0": {
      "item": "minecraft:planks",
      "data": 32767
    },
    "1": {
      "item": "nezoliamod:platinegem"
    },
    "2": {
      "item": "minecraft:planks",
      "data": 32767
    },
    "3": {
      "item": "nezoliamod:platinegem"
    },
    "4": {
      "item": "minecraft:brewing_stand"
    },
    "5": {
      "item": "nezoliamod:platinegem"
    },
    "6": {
      "item": "minecraft:planks",
      "data": 32767
    },
    "7": {
      "item": "minecraft:hopper"
    },
    "8": {
      "item": "minecraft:planks",
      "data": 32767
    }
  },
  "result": {
    "item": "nezoliamod:tonneau",
    "count": 1
  }
}