{
  "parent": "block/cube",
  "textures": {
    "down": "nezoliamod:blocks/buisson_epidote_normal",
    "up": "nezoliamod:blocks/buisson_epidote_normal",
    "north": "nezoliamod:blocks/buisson_epidote_normal",
    "east": "nezoliamod:blocks/buisson_epidote_normal",
    "south": "nezoliamod:blocks/buisson_epidote_normal",
    "west": "nezoliamod:blocks/buisson_epidote_normal",
    "particle": "nezoliamod:blocks/buisson_epidote_normal"
  }
}