{
  "parent": "block/cube",
  "textures": {
    "down": "nezoliamod:blocks/blueberryon",
    "up": "nezoliamod:blocks/blueberryon",
    "north": "nezoliamod:blocks/blueberryon",
    "east": "nezoliamod:blocks/blueberryon",
    "south": "nezoliamod:blocks/blueberryon",
    "west": "nezoliamod:blocks/blueberryon",
    "particle": "nezoliamod:blocks/blueberryon"
  }
}